module gitlab.com/thefinn93/web-media-ingest

go 1.19

require (
	github.com/labstack/echo/v4 v4.10.2
	github.com/labstack/gommon v0.4.0
	github.com/mattn/go-sqlite3 v1.14.16
	github.com/pressly/goose/v3 v3.9.0
	golang.org/x/net v0.7.0
)

require (
	github.com/golang-jwt/jwt v3.2.2+incompatible // indirect
	github.com/mattn/go-colorable v0.1.13 // indirect
	github.com/mattn/go-isatty v0.0.17 // indirect
	github.com/valyala/bytebufferpool v1.0.0 // indirect
	github.com/valyala/fasttemplate v1.2.2 // indirect
	golang.org/x/crypto v0.6.0 // indirect
	golang.org/x/sys v0.5.0 // indirect
	golang.org/x/text v0.7.0 // indirect
	golang.org/x/time v0.3.0 // indirect
)
